{
	"name": "Meat Haters",
	"toppings": ["dough_crust", "marinara_sauce", "mozzarella_cheese", "cheddar_cheese", "mushrooms", "banana_peppers", "green_peppers"],
	"img": "//pizza-luvrs-banzneri.s3.eu-north-1.amazonaws.com/pizzas/meat-haters.png",
	"username": "ryan"
}
